YHOO
^DJI
^GSPC
AXP
BA
BAC
CAT
CSCO
CVX
GE
HD
HPQ
IBM
INTC
JNJ
JPM
KO
MCD
MMM
MRK
MSFT
PFE
PG
T
VZ
WMT
XOM
^JKSE
^HSI
^OMX
MCHI
EEM
EWZ
IBXX.SA
FXI
ABBN.VX
ALFA.ST
ASSA-B.ST
ATCO-A.ST
ATCO-B.ST
AZN.L
BOL.ST
ELUX-B.ST
ERIC-B.ST
GETI-B.ST
HM-B.ST
INVE-B.ST
LUPE.ST
MTG-B.ST
NDA-SEK.ST
SAND.ST
SCA-B.ST
SCV-B.ST
SEB-A.ST
SECU-B.ST
SHB-A.ST
SKA-B.ST
SKF-B.ST
SSAB-A.ST
SWED-A.ST
SWMA.ST
TEL2-B.ST
TLSN.ST
VOLV-B.ST
0001.HK
0002.HK
0003.HK
0004.HK
0005.HK
0006.HK
0011.HK
0012.HK
0013.HK
0016.HK
0017.HK
0019.HK
0023.HK
0066.HK
0083.HK
0101.HK
0144.HK
0151.HK
0267.HK
0291.HK
0293.HK
0322.HK
0330.HK
0386.HK
0388.HK
0494.HK
0688.HK
0700.HK
0762.HK
0836.HK
0857.HK
0883.HK
0939.HK
0941.HK
1044.HK
1088.HK
1109.HK
1199.HK
1299.HK
1398.HK
1880.HK
1898.HK
1928.HK
2318.HK
2388.HK
2600.HK
2628.HK
3328.HK
3988.HK
^GDAXI
ADS.DE
ALV.DE
BAS.DE
BAYN.DE
BEI.DE
BMW.DE
CBK.DE
DAI.DE
DB1.DE
DBK.DE
DPW.DE
DTE.DE
EOAN.DE
FME.DE
FRE.DE
HEI.DE
HEN3.DE
IFX.DE
LHA.DE
LIN.DE
MAN.DE
MEO.DE
MRK.DE
MUV2.DE
RWE.DE
SAP.DE
SDF.DE
SIE.DE
TKA.DE
VOW3.DE
^FTSE
AAL.L
ABF.L
ADM.L
ADN.L
AGK.L
AMEC.L
ANTO.L
ARM.L
ASHM.L
AV.L
AZN.L
BA.L
BAB.L
BARC.L
BATS.L
BG.L
BLND.L
BLT.L
BNZL.L
BP.L
BRBY.L
BSY.L
BT-A.L
CCL.L
CNA.L
CPG.L
CPI.L
CRDA.L
CRH.L
CSCG.L
DGE.L
ENRC.L
EVR.L
EXPN.L
FRES.L
GFS.L
GKN.L
GLEN.L
GSK.L
HL.L
HMSO.L
HSBA.L
IAG.L
IAP.L
IHG.L
IMI.L
IMT.L
ITRK.L
ITV.L
JMAT.L
KAZ.L
KGF.L
LAND.L
LGEN.L
LLOY.L
MGGT.L
MKS.L
MRW.L
NG.L
NXT.L
OML.L
PFC.L
POLY.L
PRU.L
PSON.L
RB.L
RBS.L
RDSA.L
RDSB.L
REL.L
REX.L
RIO.L
RR.L
RRS.L
RSA.L
RSL.L
SAB.L
SBRY.L
SDR.L
SGE.L
SHP.L
SL.L
SMIN.L
SN.L
SRP.L
SSE.L
STAN.L
SVT.L
TATE.L
TLW.L
TSCO.L
ULVR.L
UU.L
VED.L
VOD.L
WEIR.L
WOS.L
WPP.L
WTB.L
XTA.L
